Entity Symbol	Entity type	Entity Symbol	Sources(; separated)	Level4	Level3	Level2	Model_Of_Inheritance	Phenotypes	Omim	Orphanet	HPO	Publications	Description	Flagged	GEL_Status	UserRatings_Green_amber_red	version	ready	Mode of pathogenicity	EnsemblId(GRch37)	EnsemblId(GRch38)	HGNC	Position Chromosome	Position GRCh37 Start	Position GRCh37 End	Position GRCh38 Start	Position GRCh38 End	STR Repeated Sequence	STR Normal Repeats	STR Pathogenic Repeats	Region Haploinsufficiency Score	Region Triplosensitivity Score	Region Required Overlap Percentage	Region Variant Type	Region Verbose Name
ISCA-37478	region		Other	Panel One	Parenchymal brain disorders	Neurology and neurodevelopmental disorders	"BOTH monoallelic and biallelic, autosomal or pseudoautosomal"	ID						FALSE	1	0;0;0	1.46	FALSE					15	341468341	341468368	341468388	341468388				3	11	10	cnv_gain	Verbose name
ISCA-37477	region		Other	Panel One	Parenchymal brain disorders	Neurology and neurodevelopmental disorders	"BOTH monoallelic and biallelic, autosomal or pseudoautosomal"	ID						FALSE	1	0;0;0	1.46	FALSE					15	341468341	341468368	341468388					3	11	10	cnv_gain	Verbose name
ISCA-37479	region		Other	Panel One	Parenchymal brain disorders	Neurology and neurodevelopmental disorders	None	ID						FALSE	1	0;0;0	1.46	FALSE					15	341468341	341468368	341468388					3	11	10	cnv_gain	Verbose name
